Gibran Hemani’s lab book - fst R package for gwas summary data
…
    intersect, setdiff, setequal, union

nsnp <- 1e7
dat <- tibble(
    rsid = paste0("rs", 1:nsnp),
    beta = rnorm(nsnp),
    af = runif(nsnp),
    se = 1/sqrt(100000) * 1/sqrt(af * (1-af)),
    pval = pnorm(abs(beta)/se, low=F)
)

dat

# A tibble: 10,000,000 × 5
   rsid    beta     af      se      pval
   <chr>  <dbl>  <dbl>   <dbl>     <dbl>
 1 rs1    1.17  0.516  0.00633 0        
 2 rs2   -0.179 0.635  0.00657 2.95e-164
 3 rs3    2.29  0.953  0.0149  0        
 4 rs4    1.81  0.227  0.00755 0        
 5 rs5    1.07  0.0420 0.0158  0        
 6 rs6    1.60  0.157  0.00870 0        
 7 rs7    0.752 0.741  0.00722 0        
 8 rs8   -0.184 0.143  0.00904 1.11e- 92
 9 rs9    1.01  0.731  0.00714 0        
10 rs10   0.252 0.0549 0.0139  8.88e- 74
# ℹ 9,999,990 more rows
…
