Gibran Hemani’s lab book - Sibling replication of Backman rare variants
…
Power analysis

params <- expand.grid(sim=1:500, shrinkage=seq(0,1,0.05))
res <- lapply(1:nrow(params), function(i) 
  simgwas_sib(dat$beta, dat$se, dat$Effect.allele.frequency, dat$N, 20000/500000,0.5, 0.05/nrow(dat), params$shrinkage[i])
  ) %>%
  lapply(., function(x) x$pdif) %>% bind_rows() %>% bind_cols(., params)
res

# A tibble: 10,500 × 4
        Sign `P-value`   sim shrinkage
       <dbl>     <dbl> <int>     <dbl>
 1 1.04e- 91  2.33e-11     1         0
 2 3.19e- 95  2.33e-11     2         0
 3 7.72e- 91  2.33e-11     3         0
 4 4.13e- 89  2.33e-11     4         0
 5 3.52e-105  2.33e-11     5         0
 6 6.78e- 98  2.33e-11     6         0
 7 1.85e- 93  2.33e-11     7         0
 8 4.14e- 96  2.33e-11     8         0
 9 1.76e-118  9.03e-10     9         0
10 9.63e-112  2.33e-11    10         0
# … with 10,490 more rows
…
