Gibran Hemani’s lab book - Collider bias due to batch in GWAS
…
Define parameters

param <- expand.grid(
    n = 100000,
    af = 0.4,
    bgx = sqrt(c(0.2, 0.01)),
    px = c(0.5, 0.9),
    byx = seq(0, 0.9, 0.1),
    nbatch = c(10000),
    sim=1:10
) %>% as_tibble()
param

# A tibble: 400 × 7
        n    af   bgx    px   byx nbatch   sim
    <dbl> <dbl> <dbl> <dbl> <dbl>  <dbl> <int>
 1 100000   0.4 0.447   0.5   0    10000     1
 2 100000   0.4 0.1     0.5   0    10000     1
 3 100000   0.4 0.447   0.9   0    10000     1
 4 100000   0.4 0.1     0.9   0    10000     1
 5 100000   0.4 0.447   0.5   0.1  10000     1
 6 100000   0.4 0.1     0.5   0.1  10000     1
 7 100000   0.4 0.447   0.9   0.1  10000     1
 8 100000   0.4 0.1     0.9   0.1  10000     1
 9 100000   0.4 0.447   0.5   0.2  10000     1
10 100000   0.4 0.1     0.5   0.2  10000     1
# ℹ 390 more rows
…
