Summary stats and imputation – Gibran Hemani’s lab book
…
One simulation example where there are 3 causal variants and they are known and 10% of the data is masked for imputation

R <- cor(X)
ss <- simulate_ss(X, af, 3, 20)
ss <- generate_missing(ss, 0.1)
ss1 <- imp(R, ss, which(ss$b != 0))
ss1

$ss
# A tibble: 1,075 × 13
   betahat     b    se   zhat     pval    af betahat2   se2  zhat2 betahatimp
     <dbl> <dbl> <dbl>  <dbl>    <dbl> <dbl>    <dbl> <dbl>  <dbl>      <dbl>
 1   3.17      0 0.841  3.77  1.62e- 4 0.155    3.17  0.841  3.77       3.17 
 2   0.844     0 2.53   0.333 7.39e- 1 0.989    0.844 2.53   0.333      0.844
 3  -0.185     0 1.30  -0.142 8.87e- 1 0.939   -0.185 1.30  -0.142     -0.185
 4   4.21      0 2.84   1.48  1.38e- 1 0.988    4.21  2.84   1.48       4.21 
 5  -8.30      0 2.40  -3.46  5.36e- 4 0.983   -8.30  2.40  -3.46      -8.30 
 6   4.15      0 0.699  5.94  2.93e- 9 0.241    4.15  0.699  5.94       4.15 
 7 -12.6       0 1.49  -8.46  2.72e-17 0.960  -12.6   1.49  -8.46     -12.6  
 8  -1.71      0 1.99  -0.859 3.90e- 1 0.977   -1.71  1.99  -0.859     -1.71 
 9   4.21      0 2.84   1.48  1.38e- 1 0.988    4.21  2.84   1.48       4.21 
10   0.370     0 1.29   0.286 7.75e- 1 0.938    0.370 1.29   0.286      0.370
# ℹ 1,065 more rows
# ℹ 3 more variables: seimp <dbl>, zimp <dbl>, pimp <dbl>
…
