Cross group effect comparison – Gibran Hemani’s lab book
…
temp <- params; temp$beta[1:10] <- 0
ss_eur <- generate_gwas_ss(temp, 100000)

temp <- params; temp$beta[11:20] <- 0
ss_afr <- generate_gwas_ss(temp, 10000)

temp <- params; temp$beta[15:30] <- 0
ss_sas <- generate_gwas_ss(temp, 30000)

So now each population has SNP effect estimates for 100 SNPs, an example of what the dataset looks like:

ss_eur

# A tibble: 100 × 7
   snp      af      se     bhat   fval      n  pval
   <chr> <dbl>   <dbl>    <dbl>  <dbl>  <dbl> <dbl>
 1 rs1   0.330 0.00476 -0.00147 0.0960 100000 0.757
 2 rs2   0.229 0.00532 -0.00110 0.0430 100000 0.836
 3 rs3   0.133 0.00658  0.0100  2.33   100000 0.127
 4 rs4   0.417 0.00454  0.00134 0.0873 100000 0.768
 5 rs5   0.190 0.00570 -0.00276 0.235  100000 0.628
 6 rs6   0.362 0.00465  0.00309 0.442  100000 0.506
 7 rs7   0.273 0.00502 -0.00535 1.13   100000 0.287
 8 rs8   0.497 0.00447  0.00192 0.184  100000 0.668
 9 rs9   0.195 0.00564 -0.00308 0.298  100000 0.585
10 rs10  0.426 0.00452  0.00524 1.34   100000 0.246
# ℹ 90 more rows
…
Run analysis:

o <- heterogeneity_test(list(eur=ss_eur, afr=ss_afr, sas=ss_sas))

Warning: The `x` argument of `as_tibble.matrix()` must have unique column names if
`.name_repair` is omitted as of tibble 2.0.0.
ℹ Using compatibility `.name_repair`.

o$Q

# A tibble: 100 × 2
   snp      Qpval
   <chr>    <dbl>
 1 rs1   1.19e-18
 2 rs2   1.00e-16
 3 rs3   4.70e-27
 4 rs4   3.01e- 6
 5 rs5   2.31e-12
 6 rs6   1.31e- 2
 7 rs7   1.75e- 8
 8 rs8   3.59e- 3
 9 rs9   1.94e- 4
10 rs10  9.73e- 1
# ℹ 90 more rows
…
index <- which(ss_eur$pval < 5e-8)
o_eur_afr <- expected_vs_observed_replication(ss_eur$bhat[index], ss_afr$bhat[index], ss_eur$se[index], ss_afr$se[index], 0.05)
o_eur_afr

$res
# A tibble: 4 × 5
   nsnp metric  datum    value       pdiff
  <int> <chr>   <chr>    <dbl>       <dbl>
1    59 Sign    Expected  58.7 NA         
2    59 Sign    Observed  54    0.00000976
3    59 P-value Expected  52.1 NA         
4    59 P-value Observed  48    0.103     

$variants
# A tibble: 59 × 6
   expected_pval observed_pval replication_fail expected_sign observed_sign
           <dbl> <lgl>         <lgl>                    <dbl> <lgl>        
 1         1.00  TRUE          FALSE                    1     TRUE         
 2         1.00  FALSE         TRUE                     1.00  FALSE        
 3         1.00  TRUE          FALSE                    1.00  FALSE        
 4         0.996 FALSE         TRUE                     1.00  TRUE         
 5         1.00  FALSE         TRUE                     1.00  TRUE         
 6         0.940 FALSE         FALSE                    1.00  FALSE        
 7         0.765 FALSE         FALSE                    0.996 FALSE        
 8         1     FALSE         TRUE                     1     FALSE        
 9         1.00  TRUE          FALSE                    1     TRUE         
10         0.996 TRUE          FALSE                    1.00  TRUE         
# ℹ 49 more rows
# ℹ 1 more variable: sign_fail <lgl>
…
index <- which(ss_afr$pval < 5e-8)
o_afr_sas <- expected_vs_observed_replication(ss_afr$bhat[index], ss_afr$bhat[index], ss_sas$se[index], ss_sas$se[index], 0.05)
o_afr_sas

$res
# A tibble: 4 × 5
   nsnp metric  datum    value pdiff
  <int> <chr>   <chr>    <dbl> <dbl>
1    21 Sign    Expected    21    NA
2    21 Sign    Observed    21     1
3    21 P-value Expected    21    NA
4    21 P-value Observed    21     1

$variants
# A tibble: 21 × 6
   expected_pval observed_pval replication_fail expected_sign observed_sign
           <dbl> <lgl>         <lgl>                    <dbl> <lgl>        
 1             1 TRUE          FALSE                        1 TRUE         
 2             1 TRUE          FALSE                        1 TRUE         
 3             1 TRUE          FALSE                        1 TRUE         
 4             1 TRUE          FALSE                        1 TRUE         
 5             1 TRUE          FALSE                        1 TRUE         
 6             1 TRUE          FALSE                        1 TRUE         
 7             1 TRUE          FALSE                        1 TRUE         
 8             1 TRUE          FALSE                        1 TRUE         
 9             1 TRUE          FALSE                        1 TRUE         
10             1 TRUE          FALSE                        1 TRUE         
# ℹ 11 more rows
# ℹ 1 more variable: sign_fail <lgl>
…
