Convert Bayes factors to beta and standard error – Gibran Hemani’s lab book
…
Get Z scores from lbf

a <- lbf_to_z_cont(sout$lbf_variable[1,], 50000, ss$af, prior_v = 50)
a

# A tibble: 501 × 5
     lbf     af     z    beta      se
   <dbl>  <dbl> <dbl>   <dbl>   <dbl>
 1 -2.51 0.373   1.41 0.00919 0.00654
 2 -2.43 0.169   1.37 0.0115  0.00844
 3 -2.37 0.17    1.42 0.0119  0.00842
 4 -2.43 0.169   1.37 0.0115  0.00844
 5 -2.43 0.169   1.37 0.0115  0.00844
 6 -2.52 0.191   1.32 0.0106  0.00805
 7 -2.43 0.169   1.37 0.0115  0.00844
 8 -2.44 0.17    1.36 0.0115  0.00842
 9  2.23 0.0139  3.17 0.0855  0.0270 
10 -2.43 0.169   1.37 0.0115  0.00844
# … with 491 more rows
…
