Gibran Hemani’s lab book - IV confounding with changing variances
…
Warning in rnorm(n, sd = sqrt(1 - param2$bux[i]^2)): NAs produced

Warning in rnorm(n, sd = sqrt(1 - param2$buy[i]^2)): NAs produced

Warning in rnorm(n, sd = sqrt(1 - param2$bux[i]^2)): NAs produced

param3$tval <- param3$b/param3$se

param3 %>% group_by(bux, buy) %>%
    summarise(m=mean(tval), s=sd(tval))

`summarise()` has grouped output by 'bux'. You can override using the `.groups`
argument.

# A tibble: 81 × 4
# Groups:   bux [9]
     bux   buy      m       s
   <dbl> <dbl>  <dbl>   <dbl>
 1 -1    -1    -118.    1.11 
 2 -1    -0.75   91.3  78.5  
 3 -1    -0.5   -65.1 104.   
 4 -1    -0.25   39.0 118.   
 5 -1     0     -13.5 124.   
 6 -1     0.25  -12.8 124.   
 7 -1     0.5    39.1 117.   
 8 -1     0.75  -65.3 103.   
 9 -1     1     118.    1.11 
10 -0.75 -1    -118.    0.826
# ℹ 71 more rows
…
