Gibran Hemani’s lab book - Comparing expected vs observed
…
$res
# A tibble: 4 × 7
# Groups:   metric [2]
   nsnp metric  datum    value pdiff pdiff_sim pdiff_sim_np
  <int> <chr>   <chr>    <dbl> <dbl>     <dbl>        <dbl>
1   100 P-value Expected  86.4 0.559     0.112         0.08
2   100 P-value Observed  89   0.559     0.112         0.08
3   100 Sign    Expected  97.6 0.182     0.969         0.94
4   100 Sign    Observed 100   0.182     0.969         0.94

$variants
# A tibble: 100 × 2
     sig  sign
   <dbl> <dbl>
 1 1.00  1.00 
 2 1     1    
 3 0.996 1.00 
 4 1     1    
 5 1     1    
 6 1.00  1    
 7 1.00  1.00 
 8 1.00  1.00 
 9 1.00  1.00 
10 0.669 0.992
# ℹ 90 more rows
…
res %>% 
    as_tibble() %>%
    filter(datum == "Observed") %>%
    group_by(nflip, metric) %>%
    summarise(n=n(), pdiff = sum(pdiff < 0.05)/n(), pdiff_sim = sum(pdiff_sim < 0.05)/n())

`summarise()` has grouped output by 'nflip'. You can override using the
`.groups` argument.

# A tibble: 42 × 5
# Groups:   nflip [21]
   nflip metric      n  pdiff pdiff_sim
   <dbl> <chr>   <int>  <dbl>     <dbl>
 1     0 P-value  2000 0.0005     0.085
 2     0 Sign     2000 0.0105     0    
 3     1 P-value   200 0          0.35 
 4     1 Sign      200 0          0    
 5     2 P-value   200 0.005      0.78 
 6     2 Sign      200 0          0    
 7     3 P-value   200 0.025      0.96 
 8     3 Sign      200 0          0.02 
 9     4 P-value   200 0.2        0.975
10     4 Sign      200 0          0.06 
# ℹ 32 more rows
…
