Differences in cancer prevalence and heritability – Gibran Hemani’s lab book
…
twins <- make_twins(100000, 100000, 100, 1)
twins

# A tibble: 400,000 × 4
     fid iid      prs what 
   <int> <chr>  <dbl> <chr>
 1     1 1a    21.3   mz   
 2     2 2a    11.0   mz   
 3     3 3a     9.17  mz   
 4     4 4a    12.5   mz   
 5     5 5a     5.23  mz   
 6     6 6a     4.72  mz   
 7     7 7a    13.3   mz   
 8     8 8a     9.81  mz   
 9     9 9a    -0.181 mz   
10    10 10a    9.09  mz   
# ℹ 399,990 more rows
…
twdat <- make_twins(1000000, 1000000, 100, 0.3)
twins <- twdat %>%
    rename(g=prs) %>%
    mutate(
        g = (g - mean(g))*2,
        e = rnorm(n(), sd=sd(g[1:1000])),
        cat = sample(0:1, n(), replace=TRUE),
        smoking = cat * 3.5,
        liability = -7 + g + e + smoking,
        cancer = rbinom(n(), 1, plogis(liability))
    )

twins

# A tibble: 4,000,000 × 9
     fid iid        g what       e   cat smoking liability cancer
   <int> <chr>  <dbl> <chr>  <dbl> <int>   <dbl>     <dbl>  <int>
 1     1 1a    -0.120 mz    -2.55      0     0       -9.67      0
 2     2 2a    -0.243 mz    -2.30      0     0       -9.54      0
 3     3 3a    -1.74  mz    -3.37      1     3.5     -8.61      0
 4     4 4a     4.76  mz     3.51      0     0        1.27      1
 5     5 5a     4.30  mz    -5.00      0     0       -7.69      0
 6     6 6a     0.219 mz    -3.85      1     3.5     -7.13      0
 7     7 7a    -5.26  mz     3.62      0     0       -8.64      0
 8     8 8a     1.59  mz     2.68      0     0       -2.74      0
 9     9 9a     7.55  mz    -4.92      0     0       -4.38      0
10    10 10a   -3.38  mz     0.762     0     0       -9.62      0
# ℹ 3,999,990 more rows
…
# A tibble: 2 × 3
# Groups:   cat [2]
    cat h2twin h2twin2
  <int>  <dbl>   <dbl>
1     0 0.0660      NA
2     1 0.0710      NA

group_by(twins, cat) %>%
    do({
        print(.)
        get_twin_h2_falconer(.)
    }) %>% str

# A tibble: 2,000,246 × 9
     fid iid        g what       e   cat smoking liability cancer
   <int> <chr>  <dbl> <chr>  <dbl> <int>   <dbl>     <dbl>  <int>
 1     1 1a    -0.120 mz    -2.55      0       0     -9.67      0
 2     2 2a    -0.243 mz    -2.30      0       0     -9.54      0
 3     4 4a     4.76  mz     3.51      0       0      1.27      1
 4     5 5a     4.30  mz    -5.00      0       0     -7.69      0
 5     7 7a    -5.26  mz     3.62      0       0     -8.64      0
 6     8 8a     1.59  mz     2.68      0       0     -2.74      0
 7     9 9a     7.55  mz    -4.92      0       0     -4.38      0
 8    10 10a   -3.38  mz     0.762     0       0     -9.62      0
 9    11 11a   -2.60  mz     0.221     0       0     -9.38      0
10    12 12a   -0.900 mz    -4.27      0       0    -12.2       0
# ℹ 2,000,236 more rows

`summarise()` has grouped output by 'what'. You can override using the
`.groups` argument.
`summarise()` has grouped output by 'what'. You can override using the
`.groups` argument.

# A tibble: 4 × 3
# Groups:   what [2]
  what      c     n
  <chr> <int> <int>
1 dz        1 51362
2 dz        2  5526
3 mz        1 47773
4 mz        2  8763
# A tibble: 1,999,754 × 9
     fid iid        g what       e   cat smoking liability cancer
   <int> <chr>  <dbl> <chr>  <dbl> <int>   <dbl>     <dbl>  <int>
 1     3 3a    -1.74  mz    -3.37      1     3.5    -8.61       0
 2     6 6a     0.219 mz    -3.85      1     3.5    -7.13       0
 3    13 13a    3.83  mz     0.956     1     3.5     1.29       0
 4    17 17a    0.939 mz    -4.94      1     3.5    -7.50       0
 5    18 18a    3.17  mz    -6.75      1     3.5    -7.08       0
 6    22 22a    3.20  mz    -5.96      1     3.5    -6.26       0
 7    24 24a   -0.115 mz     3.10      1     3.5    -0.516      0
 8    29 29a    2.76  mz     4.90      1     3.5     4.17       1
 9    30 30a   -0.282 mz     6.79      1     3.5     3.01       1
10    33 33a   -0.960 mz     1.41      1     3.5    -3.05       0
# ℹ 1,999,744 more rows
…
