Gibran Hemani’s lab book - Power of G x age interactions
…
    return(list(dat=dat, coef=coef))
}

An example of the simulation with no interaction:

sim <- simdat(500000, 0.02, 0, 0, 0)
sim

$dat
# A tibble: 500,000 × 5
# Groups:   age [31]
     age     g       e   prs       y
   <dbl> <int>   <dbl> <dbl>   <dbl>
 1    40     0 -0.777   0    -0.777 
 2    40     1 -0.154   0.02 -0.134 
 3    40     1  0.217   0.02  0.237 
 4    40     2  1.32    0.04  1.36  
 5    40     1  0.554   0.02  0.574 
 6    40     2 -0.739   0.04 -0.699 
 7    40     2  1.67    0.04  1.71  
 8    40     1  0.226   0.02  0.246 
 9    40     0 -0.388   0    -0.388 
10    40     0  0.0369  0     0.0369
# ℹ 499,990 more rows

$coef
# A tibble: 31 × 3
     age      x bxage
   <int>  <dbl> <dbl>
 1    40 -1      0.02
 2    41 -0.933  0.02
 3    42 -0.867  0.02
 4    43 -0.8    0.02
 5    44 -0.733  0.02
 6    45 -0.667  0.02
 7    46 -0.6    0.02
 8    47 -0.533  0.02
 9    48 -0.467  0.02
10    49 -0.4    0.02
# ℹ 21 more rows
…
