NAT2 and bladder cancer – Gibran Hemani’s lab book
…
dat

# A tibble: 1,000,000 × 10
       Y       H     U     S     C     N    Gc    Gi    Gn Ccat 
   <int>   <dbl> <dbl> <int> <dbl> <dbl> <int> <int> <dbl> <fct>
 1     0 -0.0510 0.782     1     0 0.932     0     2     2 0    
 2     0  0.0204 0.640     0     0 1.05      0     1     1 0    
 3     0  0.438  0.780     1     1 1.95      1     1     2 1    
 4     0  0.112  0.306     1     1 1.31      1     2     1 1    
 5     0 -0.193  0.659     1     0 1.48      0     1     1 0    
 6     0  0.790  0.541     0     0 2.42      2     1     2 0    
 7     0 -0.0316 0.951     1     0 0.669     0     1     1 0    
 8     0  0.119  0.346     1     0 0.437     1     1     1 0    
 9     0  0.180  0.791     0     0 1.78      2     1     1 0    
10     0 -0.161  0.154     0     0 1.26      0     0     2 0    
# ℹ 999,990 more rows
…
