Gibran Hemani’s lab book - Evaluating replication rates
…
het_complex

# A tibble: 1,000 × 8
     SNP      beta      se    pval      Q   Qdf  Qpval  Qfdr
   <int>     <dbl>   <dbl>   <dbl>  <dbl> <dbl>  <dbl> <dbl>
 1     1 -0.00360  0.00433 0.203   1.10       1 0.295  0.934
 2     2  0.00692  0.00453 0.0632  3.98       1 0.0460 0.867
 3     3 -0.0110   0.00431 0.00536 0.0568     1 0.812  0.980
 4     4  0.0233   0.0106  0.0138  0.0291     1 0.864  0.988
 5     5  0.000229 0.00450 0.480   0.0512     1 0.821  0.981
 6     6  0.000567 0.00440 0.449   0.0778     1 0.780  0.976
 7     7 -0.0112   0.00596 0.0300  0.272      1 0.602  0.942
 8     8 -0.000199 0.00506 0.484   0.440      1 0.507  0.934
 9     9 -0.00530  0.00564 0.174   5.51       1 0.0189 0.767
10    10  0.0129   0.00712 0.0351  0.502      1 0.478  0.934
# ℹ 990 more rows
…
