Gibran Hemani’s lab book - Cell-specific effects for mQTLs from bulk tissue
…
o <- lapply(1:1000, function(i) sim(5, 10000) %>% mutate(sim=i)) %>% bind_rows()
o

# A tibble: 5,000 × 3
       res   betas   sim
     <dbl>   <dbl> <int>
 1 -0.820  -1.59       1
 2  0.358  -0.0905     1
 3  0.0370 -0.481      1
 4 -0.841  -1.62       1
 5  1.24    0.459      1
 6  1.70    1.34       2
 7 -0.870  -1.35       2
 8 -0.902  -1.39       2
 9  0.942   0.500      2
10 -0.788  -1.45       2
# … with 4,990 more rows
…
o2 <- lapply(1:1000, function(i) {
    s <- sample(c(0, 0.05, 0.1), 1)
    sim2(5, 10000, s) %>% mutate(sim=i, s=s)
}) %>% bind_rows()
o2

# A tibble: 5,000 × 4
        res  betas   sim     s
      <dbl>  <dbl> <int> <dbl>
 1  1.32     0.524     1  0.05
 2 -0.106   -0.890     1  0.05
 3 -0.231   -0.982     1  0.05
 4 -0.480   -1.77      1  0.05
 5 -0.482   -1.48      1  0.05
 6  0.102    0.141     2  0.05
 7 -0.00435  0.107     2  0.05
 8 -0.738   -0.825     2  0.05
 9 -0.160   -0.188     2  0.05
10  0.787    0.834     2  0.05
# … with 4,990 more rows
…
