Variance QTL using MZs – Gibran Hemani’s lab book
…
         ibd      g1      g2    prs1   prs2      y1     y2
ibd   1.0000 -0.0032 -0.0183 -0.0068 0.0024 -0.0020 0.0062
g1   -0.0032  1.0000  0.4970  0.0130 0.0195  0.0704 0.0395
g2   -0.0183  0.4970  1.0000  0.0074 0.0160  0.0434 0.0750
prs1 -0.0068  0.0130  0.0074  1.0000 0.5023  0.7720 0.3840
prs2  0.0024  0.0195  0.0160  0.5023 1.0000  0.4043 0.7777
y1   -0.0020  0.0704  0.0434  0.7720 0.4043  1.0000 0.4139
y2    0.0062  0.0395  0.0750  0.3840 0.7777  0.4139 1.0000

Now how to estimate variance effect? At a locus restrict to sib pairs who are IBD = 1

fam <- sim_sibs(af=0.5, nfam=40000, beta1=0.1, beta2=0.2, h2=0.3, c2=0.1)
fam

# A tibble: 40,000 × 7
     ibd    g1    g2 prs1[,1] prs2[,1]  y1[,1]  y2[,1]
   <dbl> <dbl> <dbl>    <dbl>    <dbl>   <dbl>   <dbl>
 1 0.477     0     2   0.542    0.307   0.958  -0.0552
 2 0.552     1     1   0.0251  -0.459   0.888  -0.675 
 3 0.5       1     1  -0.254   -0.164  -1.38   -0.596 
 4 0.517     1     0   0.252   -0.522   1.72   -0.171 
 5 0.517     1     1  -0.197   -0.183   0.343  -1.36  
 6 0.534     1     1   0.838    0.526   1.03    1.16  
 7 0.483     0     0   0.383   -0.524  -0.974  -0.727 
 8 0.5       2     1  -0.291   -0.291   0.0133 -0.884 
 9 0.534     1     1   0.310   -0.627   0.362  -0.852 
10 0.494     0     0   0.576    0.0136  1.06   -1.01  
# … with 39,990 more rows
…
