GWAS catalog traits – Gibran Hemani’s lab book
…
Warning: Expected 3 pieces. Missing pieces filled with `NA` in 4427 rows [4005, 4006,
4007, 4008, 4009, 4010, 4011, 4012, 4013, 4014, 4015, 4016, 4017, 4018, 4019,
4020, 4021, 4022, 4023, 4024, ...].

a

# A tibble: 22,932 × 7
   path                                 range id    harmonised fn    pmid  efo  
   <chr>                                <chr> <chr> <chr>      <chr> <chr> <chr>
 1 GCST90086001-GCST90087000/GCST90086… GCST… GCST… harmonised 3507… 3507… EFO_…
 2 GCST90086001-GCST90087000/GCST90086… GCST… GCST… harmonised 3507… 3507… EFO_…
 3 GCST90086001-GCST90087000/GCST90086… GCST… GCST… harmonised 3507… 3507… EFO_…
 4 GCST90086001-GCST90087000/GCST90086… GCST… GCST… harmonised 3507… 3507… EFO_…
 5 GCST90086001-GCST90087000/GCST90086… GCST… GCST… harmonised 3507… 3507… EFO_…
 6 GCST90086001-GCST90087000/GCST90086… GCST… GCST… harmonised 3507… 3507… EFO_…
 7 GCST90086001-GCST90087000/GCST90086… GCST… GCST… harmonised 3507… 3507… EFO_…
 8 GCST90086001-GCST90087000/GCST90086… GCST… GCST… harmonised 3507… 3507… EFO_…
 9 GCST90086001-GCST90087000/GCST90086… GCST… GCST… harmonised 3507… 3507… EFO_…
10 GCST90086001-GCST90087000/GCST90086… GCST… GCST… harmonised 3507… 3507… EFO_…
# ℹ 22,922 more rows
…
