Checking MZ difference model – Gibran Hemani’s lab book
…
    id = rep(1:2, n/2),
    g1 = rbinom(n/2, 2, 0.4) %>% rep(., each=2),
    g2 = rbinom(n/2, 2, 0.4) %>% rep(., each=2),
    g3 = rbinom(n/2, 2, 0.4) %>% rep(., each=2),
    g4 = rbinom(n/2, 2, 0.4) %>% rep(., each=2),
    f = rnorm(n),
    v = rnorm(n, 0, g3),
    y = 10 + g1 + f + f * drop(scale(g2)) + v + rnorm(n),
    yr = round(y),
    cc = rbinom(n, 1, plogis(-2 + y)),
    cs = drop(scale(cc))
)
dat

# A tibble: 100,000 × 12
     fid    id    g1    g2    g3    g4      f        v     y    yr    cc     cs
   <int> <int> <int> <int> <int> <int>  <dbl>    <dbl> <dbl> <dbl> <int>  <dbl>
 1     1     1     2     1     1     2  1.55  -0.443   16.4     16     1 0.0515
 2     1     2     2     1     1     2  0.367  0.126   11.2     11     1 0.0515
 3     2     1     0     1     1     0  1.29   0.379   14.3     14     1 0.0515
 4     2     2     0     1     1     0 -0.291  2.96    11.1     11     1 0.0515
 5     3     1     0     1     2     0 -0.891 -0.402    8.49     8     1 0.0515
 6     3     2     0     1     2     0  0.313  0.823   11.3     11     1 0.0515
 7     4     1     0     1     0     0  0.105  0       12.1     12     1 0.0515
 8     4     2     0     1     0     0 -1.72   0        9.25     9     1 0.0515
 9     5     1     0     0     1     2  0.911 -0.405    8.44     8     1 0.0515
10     5     2     0     0     1     2  1.60   0.00454  8.86     9     1 0.0515
# ℹ 99,990 more rows
…
        g4 = g4[1], 
        y2 = (y[1]+y[2])^2,
        y = y[1]-y[2], 
        yrabs = abs(yr[1]-yr[2]), 
        yabs=abs(y), 
        cc=cc[1]-cc[2], 
        cm = mean(cc),
        ccabs=abs(cc),
        cs2=(cs[1]-cs[2])^2,
        cs=cs[1]-cs[2], 
        csabs=abs(cs)
    )
dat2

# A tibble: 50,000 × 15
     fid    g1    g2    g3    g4    y2      y yrabs  yabs    cc    cm ccabs
   <int> <int> <int> <int> <int> <dbl>  <dbl> <dbl> <dbl> <int> <dbl> <int>
 1     1     2     1     1     2  758.  5.22      5 5.22      0     0     0
 2     2     0     1     1     0  645.  3.23      3 3.23      0     0     0
 3     3     0     1     2     0  392. -2.84      3 2.84      0     0     0
 4     4     0     1     0     0  456.  2.84      3 2.84      0     0     0
 5     5     0     0     1     2  299. -0.420     1 0.420     0     0     0
 6     6     0     0     0     0  451. -0.714     1 0.714     0     0     0
 7     7     0     1     1     1  537.  3.64      3 3.64      0     0     0
 8     8     2     1     1     2  493.  4.73      4 4.73      0     0     0
 9     9     0     1     1     1  560. -1.74      2 1.74      0     0     0
10    10     0     0     1     0  414.  2.64      2 2.64      0     0     0
# ℹ 49,990 more rows
# ℹ 3 more variables: cs2 <dbl>, cs <dbl>, csabs <dbl>
…
Warning in rbinom(n, 1, plogis(-2 + y)): NAs produced

dat

# A tibble: 100,000 × 12
     fid    id    g1    g2    g3    g4       f      v     y    yr    cc     cs
   <int> <int> <int> <int> <int> <int>   <dbl>  <dbl> <dbl> <dbl> <int>  <dbl>
 1     1     1     1     1     0     1  0.363   0      19.8    20     1 0.0247
 2     1     2     1     1     0     1  1.50    0      19.8    20     1 0.0247
 3     2     1     1     0     1     2 -1.75   -2.99   11.7    12     1 0.0247
 4     2     2     1     0     1     2 -0.373  -2.33   14.7    15     1 0.0247
 5     3     1     1     1     2     0 -0.782  -0.945  14.2    14     1 0.0247
 6     3     2     1     1     2     0  0.786   0.380  18.4    18     1 0.0247
 7     4     1     2     0     1     0  0.925  -0.726  21.2    21     1 0.0247
 8     4     2     2     0     1     0 -0.0610 -0.495  20.1    20     1 0.0247
 9     5     1     1     1     1     0  1.18    0.582  18.3    18     1 0.0247
10     5     2     1     1     1     0 -0.268   0.853  21.0    21     1 0.0247
# ℹ 99,990 more rows
…
        y2 = (y[1]+y[2])^2,
        ym = mean(c(y[1], y[2])),
        y = y[1]-y[2], 
        yrabs = abs(yr[1]-yr[2]), 
        yabs=abs(y), 
        cc=cc[1]-cc[2], 
        cm = mean(cc),
        ccabs=abs(cc),
        cs2=(cs[1]-cs[2])^2,
        cs=cs[1]-cs[2], 
        csabs=abs(cs)
    )
dat2

# A tibble: 50,000 × 16
     fid    g1    g2    g3    g4    y2    ym       y yrabs   yabs    cc    cm
   <int> <int> <int> <int> <int> <dbl> <dbl>   <dbl> <dbl>  <dbl> <int> <dbl>
 1     1     1     1     0     1 1569.  19.8  0.0214     0 0.0214     0     0
 2     2     1     0     1     2  699.  13.2 -2.93       3 2.93       0     0
 3     3     1     1     2     0 1062.  16.3 -4.13       4 4.13       0     0
 4     4     2     0     1     0 1706.  20.7  1.06       1 1.06       0     0
 5     5     1     1     1     0 1539.  19.6 -2.71       3 2.71       0     0
 6     6     0     2     1     1 1407.  18.8  4.94       5 4.94       0     0
 7     7     1     0     0     1 1190.  17.3 -2.01       2 2.01       0     0
 8     8     1     0     0     1 1251.  17.7 -1.55       1 1.55       0     0
 9     9     0     0     1     1 1078.  16.4 -0.602      1 0.602      0     0
10    10     2     2     1     1 2939.  27.1  1.17       1 1.17       0     0
# ℹ 49,990 more rows
# ℹ 4 more variables: ccabs <int>, cs2 <dbl>, cs <dbl>, csabs <dbl>
…
    g2 = rbinom(n/2, 2, 0.4) %>% rep(., each=2),
    g3 = rbinom(n/2, 2, 0.4) %>% rep(., each=2),
    g4 = rbinom(n/2, 2, 0.4) %>% rep(., each=2),
    f = rnorm(n),
    e = rnorm(n),
    v = rnorm(n, 0, g3 * 0.1),
    y = drop(scale(g1) * 0.1 + f * 0.1 + f * drop(scale(g2)) * 0.1 + v + e),
    l = drop(exp(scale(y) * 0.1)),
    score = rpois(n, l),
    score_norm = inormal(score),
    l_norm = inormal(l)
)
dat

# A tibble: 100,000 × 14
     fid    id    g1    g2    g3    g4       f      e       v       y     l
   <int> <int> <int> <int> <int> <int>   <dbl>  <dbl>   <dbl>   <dbl> <dbl>
 1     1     1     2     1     1     0  0.476  -0.155 -0.0560  0.0236 1.00 
 2     1     2     2     1     1     0 -0.545   0.591 -0.253   0.441  1.04 
 3     2     1     0     1     2     1 -0.539   1.14   0.213   1.17   1.12 
 4     2     2     0     1     2     1 -1.79    0.810  0.0542  0.517  1.05 
 5     3     1     1     1     0     1 -0.0322  0.926  0       0.951  1.10 
 6     3     2     1     1     0     1 -0.634  -1.39   0      -1.44   0.868
 7     4     1     1     0     1     2 -0.916   1.43  -0.0631  1.41   1.15 
 8     4     2     1     0     1     2  0.620   0.690  0.127   0.837  1.08 
 9     5     1     0     1     1     2  0.131  -0.337  0.0989 -0.336  0.967
10     5     2     0     1     1     2 -0.113   0.874 -0.0615  0.682  1.07 
# ℹ 99,990 more rows
# ℹ 3 more variables: score <int>, score_norm <dbl>, l_norm <dbl>
…
        g2 = g2[1], 
        g3 = g3[1], 
        g4 = g4[1], 
        y2 = (y[1]+y[2])^2,
        y = y[1]-y[2], 
        l = abs(l[1]-l[2]), 
        l_norm = abs(l_norm[1]-l_norm[2]),
        yabs = abs(y), 
        score = abs(score[1]-score[2]), 
        ms = mean(score_norm),
        score_norm = abs(score_norm[1]-score_norm[2])
    )
dat2

# A tibble: 50,000 × 13
     fid    g1    g2    g3    g4      y2      y      l l_norm  yabs score
   <int> <int> <int> <int> <int>   <dbl>  <dbl>  <dbl>  <dbl> <dbl> <int>
 1     1     2     1     1     0  0.216  -0.417 0.0419  0.409 0.417     2
 2     2     0     1     2     1  2.84    0.652 0.0695  0.628 0.652     1
 3     3     1     1     0     1  0.239   2.39  0.230   2.34  2.39      0
 4     4     1     0     1     2  5.03    0.569 0.0624  0.561 0.569     2
 5     5     0     1     1     2  0.120  -1.02  0.102   0.998 1.02      1
 6     6     0     1     1     0  0.229   1.28  0.129   1.25  1.28      2
 7     7     1     1     1     1  0.297  -0.260 0.0262  0.257 0.260     1
 8     8     1     1     1     1  1.19   -0.660 0.0683  0.640 0.660     2
 9     9     0     1     1     0  0.0839 -0.709 0.0705  0.697 0.709     1
10    10     0     0     0     0 11.3     2.45  0.204   2.42  2.45      1
# ℹ 49,990 more rows
# ℹ 2 more variables: ms <dbl>, score_norm <dbl>
…
