Gibran Hemani’s lab book - 2024-01-12-time-varying-mr
…
        dat <- tibble(
            id = 1:n_id,
            age = i,
            score1 = g %*% beta[,1] %>% drop(),
            score2 = g %*% beta[,2] %>% drop(),
            x = case_when(
                age < 15 ~ rnorm(n_id) + score1,
                TRUE ~ rnorm(n_id) + score2
            )
        )
    }
) %>% bind_rows()
dat

# A tibble: 30,000 × 5
      id   age score1 score2      x
   <int> <int>  <dbl>  <dbl>  <dbl>
 1     1     1 -0.228 -0.100  0.478
 2     2     1 -0.795 -0.700 -0.510
 3     3     1 -0.144  0.972 -0.329
 4     4     1 -1.74   0.505 -3.27 
 5     5     1  3.26  -5.00   3.30 
 6     6     1  3.47  -4.85   2.78 
 7     7     1  2.78  -1.75   2.12 
 8     8     1  5.40  -4.74   6.29 
 9     9     1  1.50   0.976  2.38 
10    10     1  0.295  2.22   0.662
# ℹ 29,990 more rows
…
