Residuals for PRS to overcome issue of non-independence – Gibran Hemani’s lab book
…
sims <- lapply(1:1000, \(i) {
    SNP <- rep(rbinom(group_size, 2, 0.5), each = ngroup)
    lapply(1:nrow(params), \(j) {
        m <- get(params$method_options[j])
        yo <- get(params$y_options[j])
        m(SNP, yo) %>% mutate(what = params$y_options[j])
    }) %>% bind_rows()

}) %>% bind_rows()
names(sims) <- c("b", "se", "tval", "pval", "method", "what")
sims

# A tibble: 7,984 × 6
          b     se   tval     pval method what      
      <dbl>  <dbl>  <dbl>    <dbl> <chr>  <chr>     
 1  0.0695  0.0216  3.22  1.31e- 3 drm    y         
 2  0.0112  0.0222  0.503 6.15e- 1 drm    yresid    
 3  0.00680 0.0214  0.318 7.51e- 1 drm    yresidhat1
 4  0.0108  0.0212  0.511 6.10e- 1 drm    yresidhat2
 5 -0.0627  0.0365 -1.72  8.63e- 2 add    y         
 6 -0.0393  0.0366 -1.07  2.83e- 1 add    yresid    
 7 -0.224   0.0359 -6.23  6.70e-10 add    yresidhat1
 8 -0.281   0.0355 -7.91  6.70e-15 add    yresidhat2
 9  0.162   0.0308  5.26  1.72e- 7 drm    y         
10  0.0141  0.0327  0.432 6.66e- 1 drm    yresid    
# ℹ 7,974 more rows
…
