Gibran Hemani’s lab book - Difference in difference models in observational data are still potentially confounded
…
dat

# A tibble: 3,000 × 5
   region  year wealth   pm10 deaths
    <int> <int>  <dbl>  <dbl>  <dbl>
 1      1     1   2.25  2.28    5.18
 2      1     2   1.81  0.393   5.79
 3      1     3   2.25  4.05    9.20
 4      1     4   2.89 12.0    11.6 
 5      1     5   4.02  7.55   12.7 
 6      1     6   3.15  3.08   12.7 
 7      1     7   1.67  1.51   11.3 
 8      1     8   2.83  4.92   13.4 
 9      1     9   5.08  8.42   16.2 
10      1    10   4.96 10.1    18.4 
# … with 2,990 more rows
…
We could try to simplify by doing the more explicit difference in difference estimate. Compare the change in deaths with the change in wealth (or PM10) over the 10 year period.

dat2 <- group_by(dat, region) %>%
  summarise(
    delta_deaths = deaths[nyear] - deaths[1],
    delta_wealth = wealth[nyear] - wealth[1],
    delta_pm10 = pm10[nyear] - pm10[1]
  )
dat2

# A tibble: 300 × 4
   region delta_deaths delta_wealth delta_pm10
    <int>        <dbl>        <dbl>      <dbl>
 1      1        13.2         2.71        7.80
 2      2        19.6        12.9        18.6 
 3      3        20.6        10.6         6.65
 4      4         4.24       -3.10      -10.7 
 5      5         9.08       -0.285      -9.31
 6      6        17.7         9.94        8.22
 7      7        10.7         2.15       10.4 
 8      8        16.7         6.61       -3.01
 9      9         6.55       -2.51       13.1 
10     10        17.9         9.83       10.8 
# … with 290 more rows
…
