Gibran Hemani’s lab book - Founders in population expansion
…
counts <- nfounders_per_generation(dat)

`summarise()` has grouped output by 'generation'. You can override using the
`.groups` argument.

counts

# A tibble: 4,841 × 3
# Groups:   generation [4]
   generation founder     n
        <dbl> <chr>   <int>
 1          0 f0_1        1
 2          0 f0_10       1
 3          0 f0_100      1
 4          0 f0_1000     1
 5          0 f0_1001     1
 6          0 f0_1002     1
 7          0 f0_1003     1
 8          0 f0_1004     1
 9          0 f0_1005     1
10          0 f0_1006     1
# ℹ 4,831 more rows
…
