Age interactions – Gibran Hemani’s lab book
…
o

# A tibble: 102 × 6
    beta     se  tval     pval     g   age
   <dbl>  <dbl> <dbl>    <dbl> <dbl> <int>
 1 0.578 0.0753  7.68 3.88e-14     1     3
 2 0.653 0.0750  8.71 1.28e-17     2     3
 3 0.481 0.114   4.21 2.82e- 5     1     4
 4 1.08  0.117   9.17 2.57e-19     2     4
 5 1.13  0.164   6.91 8.44e-12     1     5
 6 1.46  0.163   8.92 2.25e-18     2     5
 7 1.59  0.257   6.17 9.71e-10     1     8
 8 1.67  0.250   6.67 4.32e-11     2     8
 9 2.52  0.286   8.81 5.51e-18     1    13
10 1.40  0.297   4.71 2.85e- 6     2    13
# ℹ 92 more rows
…
